function data()
return {
	subMeshes = {
		{
			indices = {
				normal = {
					count = 1080,
					offset = 10912,
				},
				position = {
					count = 1080,
					offset = 8752,
				},
				tangent = {
					count = 1080,
					offset = 11992,
				},
				uv0 = {
					count = 1080,
					offset = 9832,
				},
			},
		},
	},
	vertexAttr = {
		normal = {
			count = 3240,
			numComp = 3,
			offset = 1192,
		},
		position = {
			count = 696,
			numComp = 3,
			offset = 0,
		},
		tangent = {
			count = 4320,
			numComp = 4,
			offset = 4432,
		},
		uv0 = {
			count = 496,
			numComp = 2,
			offset = 696,
		},
	},
}
end
